1 1 1
1 101 119
101 201 125
201 301 128
301 401 144
401 501 142
501 601 137
601 701 145
701 801 171
801 901 179
901 1001 174
1001 1101 169
1101 1201 182
1201 1301 177
1301 1401 177
1401 1501 172
1501 1601 167
1601 1701 180
1701 1801 180
1801 1901 175
1901 2001 175
2001 2101 157
2101 2201 170
2201 2301 183
2301 2401 183
2401 2501 209
2501 2601 178
2601 2701 191
2701 2801 173
2801 2901 173
2901 3001 217
3001 3101 186
3101 3201 199
3201 3301 168
3301 3401 181
3401 3501 181
3501 3601 194
3601 3701 207
3701 3801 238
3801 3901 176
3901 4001 189
4001 4101 189
4101 4201 189
4201 4301 202
4301 4401 215
4401 4501 184
4501 4601 184
4601 4701 184
4701 4801 197
4801 4901 179
4901 5001 210
5001 5101 179
5101 5201 179
5201 5301 192
5301 5401 192
5401 5501 192
5501 5601 236
5601 5701 205
5701 5801 205
5801 5901 218
5901 6001 187
6001 6101 187
6101 6201 262
6201 6301 187
6301 6401 200
6401 6501 169
6501 6601 244
6601 6701 182
6701 6801 182
6801 6901 182
6901 7001 257
7001 7101 195
7101 7201 195
7201 7301 177
7301 7401 208
7401 7501 239
7501 7601 208
7601 7701 177
7701 7801 221
7801 7901 190
7901 8001 252
8001 8101 190
8101 8201 190
8201 8301 190
8301 8401 234
8401 8501 203
8501 8601 203
8601 8701 203
8701 8801 216
8801 8901 185
8901 9001 247
9001 9101 185
9101 9201 198
9201 9301 260
9301 9401 198
9401 9501 198
9501 9601 198
9601 9701 185
9701 9801 198
9801 9901 242
9901 10001 180
10001 10101 224
10101 10201 180
10201 10301 242
10301 10401 224
10401 10501 255
10501 10601 193
10601 10701 255
10701 10801 193
10801 10901 206
10901 11001 268
11001 11101 206
11101 11201 237
11201 11301 206
11301 11401 206
11401 11501 175
11501 11601 237
11601 11701 219
11701 11801 175
11801 11901 188
11901 12001 250
12001 12101 188
12101 12201 250
12201 12301 188
12301 12401 263
12401 12501 201
12501 12601 263
12601 12701 201
12701 12801 201
12801 12901 170
12901 13001 201
13001 13101 201
13101 13201 245
13201 13301 276
13301 13401 183
13401 13501 245
13501 13601 245
13601 13701 183
13701 13801 214
13801 13901 258
13901 14001 183
14001 14101 196
14101 14201 152
14201 14301 196
14301 14401 196
14401 14501 209
14501 14601 183
14601 14701 271
14701 14801 209
14801 14901 240
14901 15001 209
15001 15101 271
15101 15201 222
15201 15301 178
15301 15401 240
15401 15501 209
15501 15601 222
15601 15701 253
15701 15801 191
15801 15901 222
15901 16001 253
16001 16101 235
16101 16201 191
16201 16301 204
16301 16401 191
16401 16501 266
16501 16601 191
16601 16701 235
16701 16801 266
16801 16901 204
16901 17001 204
17001 17101 217
17101 17201 235
17201 17301 235
17301 17401 204
17401 17501 204
17501 17601 248
17601 17701 279
17701 17801 186
17801 17901 217
17901 18001 248
18001 18101 186
18101 18201 186
18201 18301 248
18301 18401 199
18401 18501 230
18501 18601 261
18601 18701 186
18701 18801 230
18801 18901 261
18901 19001 230
19001 19101 199
19101 19201 199
19201 19301 212
19301 19401 186
19401 19501 199
19501 19601 274
19601 19701 199
19701 19801 243
19801 19901 274
19901 20001 212
20001 20101 243
20101 20201 243
20201 20301 212
20301 20401 243
20401 20501 243
20501 20601 212
20601 20701 212
20701 20801 225
20801 20901 256
20901 21001 181
21001 21101 225
21101 21201 163
21201 21301 256
21301 21401 256
21401 21501 238
21501 21601 194
21601 21701 194
21701 21801 207
21801 21901 238
21901 22001 269
22001 22101 269
22101 22201 207
22201 22301 238
22301 22401 269
22401 22501 207
22501 22601 269
22601 22701 220
22701 22801 238
22801 22901 207
22901 23001 194
23001 23101 238
23101 23201 207
23201 23301 176
23301 23401 220
23401 23501 251
23501 23601 282
23601 23701 251
23701 23801 220
23801 23901 251
23901 24001 220
24001 24101 251
24101 24201 189
24201 24301 251
24301 24401 189
24401 24501 202
24501 24601 233
24601 24701 264
24701 24801 264
24801 24901 189
24901 25001 233
25001 25101 233
25101 25201 264
25201 25301 233
25301 25401 246
25401 25501 202
25501 25601 215
25601 25701 233
25701 25801 233
25801 25901 233
25901 26001 202
26001 26101 202
26101 26201 202
26201 26301 246
26301 26401 246
26401 26501 277
26501 26601 277
26601 26701 308
26701 26801 246
26801 26901 246
26901 27001 215
27001 27101 215
27101 27201 259
27201 27301 246
27301 27401 246
27401 27501 215
27501 27601 184
27601 27701 228
27701 27801 259
27801 27901 259
27901 28001 184
28001 28101 197
28101 28201 228
28201 28301 228
28301 28401 259
28401 28501 228
28501 28601 197
28601 28701 197
28701 28801 197
28801 28901 228
28901 29001 210
29001 29101 197
29101 29201 241
29201 29301 272
29301 29401 272
29401 29501 197
29501 29601 210
29601 29701 241
29701 29801 166
29801 29901 272
